-- Merging decision tree log ---
manifest
ADDED from F:\Projects\Current Projects\app\src\main\AndroidManifest.xml:2:1-26:12
INJECTED from F:\Projects\Current Projects\app\src\main\AndroidManifest.xml:2:1-26:12
INJECTED from F:\Projects\Current Projects\app\src\main\AndroidManifest.xml:2:1-26:12
INJECTED from F:\Projects\Current Projects\app\src\main\AndroidManifest.xml:2:1-26:12
MERGED from [com.android.support:design:27.1.1] C:\Users\admin\.gradle\caches\transforms-1\files-1.1\design-27.1.1.aar\b17b66905dbf89521ea9a7b54d2d9522\AndroidManifest.xml:17:1-22:12
MERGED from [com.android.support:appcompat-v7:27.1.1] C:\Users\admin\.gradle\caches\transforms-1\files-1.1\appcompat-v7-27.1.1.aar\d7bd9aaa86cab34a3a55c831410f0154\AndroidManifest.xml:17:1-22:12
MERGED from [com.android.support.constraint:constraint-layout:1.1.2] C:\Users\admin\.gradle\caches\transforms-1\files-1.1\constraint-layout-1.1.2.aar\6198a30b6c5b2036e94effa4410b2760\AndroidManifest.xml:2:1-11:12
MERGED from [com.intuit.sdp:sdp-android:1.0.5] C:\Users\admin\.gradle\caches\transforms-1\files-1.1\sdp-android-1.0.5.aar\166b22c688ae0d60f60ae40fc75befcd\AndroidManifest.xml:2:1-11:12
MERGED from [de.hdodenhof:circleimageview:2.2.0] C:\Users\admin\.gradle\caches\transforms-1\files-1.1\circleimageview-2.2.0.aar\d39fd46f2f777343c70c558530619e46\AndroidManifest.xml:2:1-11:12
MERGED from [com.jakewharton:butterknife:8.8.1] C:\Users\admin\.gradle\caches\transforms-1\files-1.1\butterknife-8.8.1.aar\ad0682cf10b6a637ec7676e7c8c12fdd\AndroidManifest.xml:2:1-7:12
MERGED from [com.android.support:support-v4:27.1.1] C:\Users\admin\.gradle\caches\transforms-1\files-1.1\support-v4-27.1.1.aar\eb4799c479c41b9b88942a1068ca831a\AndroidManifest.xml:17:1-22:12
MERGED from [com.android.support:support-fragment:27.1.1] C:\Users\admin\.gradle\caches\transforms-1\files-1.1\support-fragment-27.1.1.aar\40112256b2c21a5b08866b31270086eb\AndroidManifest.xml:17:1-22:12
MERGED from [com.android.support:animated-vector-drawable:27.1.1] C:\Users\admin\.gradle\caches\transforms-1\files-1.1\animated-vector-drawable-27.1.1.aar\4bf5494ad8d6b8293785f1c76feeeef7\AndroidManifest.xml:17:1-22:12
MERGED from [com.android.support:recyclerview-v7:27.1.1] C:\Users\admin\.gradle\caches\transforms-1\files-1.1\recyclerview-v7-27.1.1.aar\430fede9391f32a9918d4f183888fc51\AndroidManifest.xml:17:1-22:12
MERGED from [com.android.support:support-core-ui:27.1.1] C:\Users\admin\.gradle\caches\transforms-1\files-1.1\support-core-ui-27.1.1.aar\af86f49975d34e13b355ecd5bfead3f7\AndroidManifest.xml:17:1-22:12
MERGED from [com.android.support:support-core-utils:27.1.1] C:\Users\admin\.gradle\caches\transforms-1\files-1.1\support-core-utils-27.1.1.aar\48e3c39a28f0befbb1b048738df67aff\AndroidManifest.xml:17:1-22:12
MERGED from [com.android.support:support-vector-drawable:27.1.1] C:\Users\admin\.gradle\caches\transforms-1\files-1.1\support-vector-drawable-27.1.1.aar\c49c50d521e9741ade7cdf78a12a4cd1\AndroidManifest.xml:17:1-22:12
MERGED from [com.android.support:transition:27.1.1] C:\Users\admin\.gradle\caches\transforms-1\files-1.1\transition-27.1.1.aar\84202e42768ce6f64eed1d922756c39f\AndroidManifest.xml:17:1-22:12
MERGED from [com.android.support:support-media-compat:27.1.1] C:\Users\admin\.gradle\caches\transforms-1\files-1.1\support-media-compat-27.1.1.aar\ca627b7abe3354b124799e616071c8c8\AndroidManifest.xml:17:1-22:12
MERGED from [com.android.support:support-compat:27.1.1] C:\Users\admin\.gradle\caches\transforms-1\files-1.1\support-compat-27.1.1.aar\d920c432dd3047864e88bd440f5860ae\AndroidManifest.xml:17:1-22:12
MERGED from [android.arch.lifecycle:livedata-core:1.1.0] C:\Users\admin\.gradle\caches\transforms-1\files-1.1\livedata-core-1.1.0.aar\183f54e9b4fc9ee32a97f01e4ee5845a\AndroidManifest.xml:17:1-22:12
MERGED from [android.arch.lifecycle:viewmodel:1.1.0] C:\Users\admin\.gradle\caches\transforms-1\files-1.1\viewmodel-1.1.0.aar\e3f0b7d7143d8120a2b30d12dfd4f4fb\AndroidManifest.xml:17:1-22:12
MERGED from [android.arch.lifecycle:runtime:1.1.0] C:\Users\admin\.gradle\caches\transforms-1\files-1.1\runtime-1.1.0.aar\47215543a14e42c7552151f5a4a7cfaf\AndroidManifest.xml:17:1-22:12
MERGED from [android.arch.core:runtime:1.1.0] C:\Users\admin\.gradle\caches\transforms-1\files-1.1\runtime-1.1.0.aar\09d7fb7084632ff06c5dddda3bdff890\AndroidManifest.xml:17:1-22:12
INJECTED from F:\Projects\Current Projects\app\src\main\AndroidManifest.xml:2:1-26:12
INJECTED from F:\Projects\Current Projects\app\src\main\AndroidManifest.xml:2:1-26:12
INJECTED from F:\Projects\Current Projects\app\src\main\AndroidManifest.xml:2:1-26:12
	package
		ADDED from F:\Projects\Current Projects\app\src\main\AndroidManifest.xml:3:5-44
		INJECTED from F:\Projects\Current Projects\app\src\main\AndroidManifest.xml
		INJECTED from F:\Projects\Current Projects\app\src\main\AndroidManifest.xml
	android:versionName
		INJECTED from F:\Projects\Current Projects\app\src\main\AndroidManifest.xml
		ADDED from F:\Projects\Current Projects\app\src\main\AndroidManifest.xml:2:1-26:12
		INJECTED from F:\Projects\Current Projects\app\src\main\AndroidManifest.xml
	android:versionCode
		INJECTED from F:\Projects\Current Projects\app\src\main\AndroidManifest.xml
		ADDED from F:\Projects\Current Projects\app\src\main\AndroidManifest.xml:2:1-26:12
		INJECTED from F:\Projects\Current Projects\app\src\main\AndroidManifest.xml
	xmlns:android
		ADDED from F:\Projects\Current Projects\app\src\main\AndroidManifest.xml:2:11-69
uses-permission#android.permission.INTERNET
ADDED from F:\Projects\Current Projects\app\src\main\AndroidManifest.xml:5:5-67
	android:name
		ADDED from F:\Projects\Current Projects\app\src\main\AndroidManifest.xml:5:22-64
application
ADDED from F:\Projects\Current Projects\app\src\main\AndroidManifest.xml:7:5-24:19
MERGED from [com.android.support.constraint:constraint-layout:1.1.2] C:\Users\admin\.gradle\caches\transforms-1\files-1.1\constraint-layout-1.1.2.aar\6198a30b6c5b2036e94effa4410b2760\AndroidManifest.xml:9:5-20
MERGED from [com.android.support.constraint:constraint-layout:1.1.2] C:\Users\admin\.gradle\caches\transforms-1\files-1.1\constraint-layout-1.1.2.aar\6198a30b6c5b2036e94effa4410b2760\AndroidManifest.xml:9:5-20
MERGED from [de.hdodenhof:circleimageview:2.2.0] C:\Users\admin\.gradle\caches\transforms-1\files-1.1\circleimageview-2.2.0.aar\d39fd46f2f777343c70c558530619e46\AndroidManifest.xml:9:5-20
MERGED from [de.hdodenhof:circleimageview:2.2.0] C:\Users\admin\.gradle\caches\transforms-1\files-1.1\circleimageview-2.2.0.aar\d39fd46f2f777343c70c558530619e46\AndroidManifest.xml:9:5-20
	android:supportsRtl
		ADDED from F:\Projects\Current Projects\app\src\main\AndroidManifest.xml:12:9-35
	android:label
		ADDED from F:\Projects\Current Projects\app\src\main\AndroidManifest.xml:10:9-41
	android:roundIcon
		ADDED from F:\Projects\Current Projects\app\src\main\AndroidManifest.xml:11:9-54
	android:icon
		ADDED from F:\Projects\Current Projects\app\src\main\AndroidManifest.xml:9:9-43
	android:allowBackup
		ADDED from F:\Projects\Current Projects\app\src\main\AndroidManifest.xml:8:9-35
	android:theme
		ADDED from F:\Projects\Current Projects\app\src\main\AndroidManifest.xml:13:9-40
activity#com.example.admin.apicalldemo.Activity.MainActivity
ADDED from F:\Projects\Current Projects\app\src\main\AndroidManifest.xml:14:9-20:20
	android:name
		ADDED from F:\Projects\Current Projects\app\src\main\AndroidManifest.xml:14:19-56
intent-filter#action:name:android.intent.action.MAIN+category:name:android.intent.category.LAUNCHER
ADDED from F:\Projects\Current Projects\app\src\main\AndroidManifest.xml:15:13-19:29
action#android.intent.action.MAIN
ADDED from F:\Projects\Current Projects\app\src\main\AndroidManifest.xml:16:17-69
	android:name
		ADDED from F:\Projects\Current Projects\app\src\main\AndroidManifest.xml:16:25-66
category#android.intent.category.LAUNCHER
ADDED from F:\Projects\Current Projects\app\src\main\AndroidManifest.xml:18:17-77
	android:name
		ADDED from F:\Projects\Current Projects\app\src\main\AndroidManifest.xml:18:27-74
activity#com.example.admin.apicalldemo.Main2Activity
ADDED from F:\Projects\Current Projects\app\src\main\AndroidManifest.xml:21:9-23:20
	android:name
		ADDED from F:\Projects\Current Projects\app\src\main\AndroidManifest.xml:21:19-48
uses-sdk
INJECTED from F:\Projects\Current Projects\app\src\main\AndroidManifest.xml reason: use-sdk injection requested
INJECTED from F:\Projects\Current Projects\app\src\main\AndroidManifest.xml
INJECTED from F:\Projects\Current Projects\app\src\main\AndroidManifest.xml
MERGED from [com.android.support:design:27.1.1] C:\Users\admin\.gradle\caches\transforms-1\files-1.1\design-27.1.1.aar\b17b66905dbf89521ea9a7b54d2d9522\AndroidManifest.xml:20:5-44
MERGED from [com.android.support:design:27.1.1] C:\Users\admin\.gradle\caches\transforms-1\files-1.1\design-27.1.1.aar\b17b66905dbf89521ea9a7b54d2d9522\AndroidManifest.xml:20:5-44
MERGED from [com.android.support:appcompat-v7:27.1.1] C:\Users\admin\.gradle\caches\transforms-1\files-1.1\appcompat-v7-27.1.1.aar\d7bd9aaa86cab34a3a55c831410f0154\AndroidManifest.xml:20:5-44
MERGED from [com.android.support:appcompat-v7:27.1.1] C:\Users\admin\.gradle\caches\transforms-1\files-1.1\appcompat-v7-27.1.1.aar\d7bd9aaa86cab34a3a55c831410f0154\AndroidManifest.xml:20:5-44
MERGED from [com.android.support.constraint:constraint-layout:1.1.2] C:\Users\admin\.gradle\caches\transforms-1\files-1.1\constraint-layout-1.1.2.aar\6198a30b6c5b2036e94effa4410b2760\AndroidManifest.xml:5:5-7:41
MERGED from [com.android.support.constraint:constraint-layout:1.1.2] C:\Users\admin\.gradle\caches\transforms-1\files-1.1\constraint-layout-1.1.2.aar\6198a30b6c5b2036e94effa4410b2760\AndroidManifest.xml:5:5-7:41
MERGED from [com.intuit.sdp:sdp-android:1.0.5] C:\Users\admin\.gradle\caches\transforms-1\files-1.1\sdp-android-1.0.5.aar\166b22c688ae0d60f60ae40fc75befcd\AndroidManifest.xml:7:5-9:41
MERGED from [com.intuit.sdp:sdp-android:1.0.5] C:\Users\admin\.gradle\caches\transforms-1\files-1.1\sdp-android-1.0.5.aar\166b22c688ae0d60f60ae40fc75befcd\AndroidManifest.xml:7:5-9:41
MERGED from [de.hdodenhof:circleimageview:2.2.0] C:\Users\admin\.gradle\caches\transforms-1\files-1.1\circleimageview-2.2.0.aar\d39fd46f2f777343c70c558530619e46\AndroidManifest.xml:5:5-7:41
MERGED from [de.hdodenhof:circleimageview:2.2.0] C:\Users\admin\.gradle\caches\transforms-1\files-1.1\circleimageview-2.2.0.aar\d39fd46f2f777343c70c558530619e46\AndroidManifest.xml:5:5-7:41
MERGED from [com.jakewharton:butterknife:8.8.1] C:\Users\admin\.gradle\caches\transforms-1\files-1.1\butterknife-8.8.1.aar\ad0682cf10b6a637ec7676e7c8c12fdd\AndroidManifest.xml:5:5-43
MERGED from [com.jakewharton:butterknife:8.8.1] C:\Users\admin\.gradle\caches\transforms-1\files-1.1\butterknife-8.8.1.aar\ad0682cf10b6a637ec7676e7c8c12fdd\AndroidManifest.xml:5:5-43
MERGED from [com.android.support:support-v4:27.1.1] C:\Users\admin\.gradle\caches\transforms-1\files-1.1\support-v4-27.1.1.aar\eb4799c479c41b9b88942a1068ca831a\AndroidManifest.xml:20:5-44
MERGED from [com.android.support:support-v4:27.1.1] C:\Users\admin\.gradle\caches\transforms-1\files-1.1\support-v4-27.1.1.aar\eb4799c479c41b9b88942a1068ca831a\AndroidManifest.xml:20:5-44
MERGED from [com.android.support:support-fragment:27.1.1] C:\Users\admin\.gradle\caches\transforms-1\files-1.1\support-fragment-27.1.1.aar\40112256b2c21a5b08866b31270086eb\AndroidManifest.xml:20:5-44
MERGED from [com.android.support:support-fragment:27.1.1] C:\Users\admin\.gradle\caches\transforms-1\files-1.1\support-fragment-27.1.1.aar\40112256b2c21a5b08866b31270086eb\AndroidManifest.xml:20:5-44
MERGED from [com.android.support:animated-vector-drawable:27.1.1] C:\Users\admin\.gradle\caches\transforms-1\files-1.1\animated-vector-drawable-27.1.1.aar\4bf5494ad8d6b8293785f1c76feeeef7\AndroidManifest.xml:20:5-44
MERGED from [com.android.support:animated-vector-drawable:27.1.1] C:\Users\admin\.gradle\caches\transforms-1\files-1.1\animated-vector-drawable-27.1.1.aar\4bf5494ad8d6b8293785f1c76feeeef7\AndroidManifest.xml:20:5-44
MERGED from [com.android.support:recyclerview-v7:27.1.1] C:\Users\admin\.gradle\caches\transforms-1\files-1.1\recyclerview-v7-27.1.1.aar\430fede9391f32a9918d4f183888fc51\AndroidManifest.xml:20:5-44
MERGED from [com.android.support:recyclerview-v7:27.1.1] C:\Users\admin\.gradle\caches\transforms-1\files-1.1\recyclerview-v7-27.1.1.aar\430fede9391f32a9918d4f183888fc51\AndroidManifest.xml:20:5-44
MERGED from [com.android.support:support-core-ui:27.1.1] C:\Users\admin\.gradle\caches\transforms-1\files-1.1\support-core-ui-27.1.1.aar\af86f49975d34e13b355ecd5bfead3f7\AndroidManifest.xml:20:5-44
MERGED from [com.android.support:support-core-ui:27.1.1] C:\Users\admin\.gradle\caches\transforms-1\files-1.1\support-core-ui-27.1.1.aar\af86f49975d34e13b355ecd5bfead3f7\AndroidManifest.xml:20:5-44
MERGED from [com.android.support:support-core-utils:27.1.1] C:\Users\admin\.gradle\caches\transforms-1\files-1.1\support-core-utils-27.1.1.aar\48e3c39a28f0befbb1b048738df67aff\AndroidManifest.xml:20:5-44
MERGED from [com.android.support:support-core-utils:27.1.1] C:\Users\admin\.gradle\caches\transforms-1\files-1.1\support-core-utils-27.1.1.aar\48e3c39a28f0befbb1b048738df67aff\AndroidManifest.xml:20:5-44
MERGED from [com.android.support:support-vector-drawable:27.1.1] C:\Users\admin\.gradle\caches\transforms-1\files-1.1\support-vector-drawable-27.1.1.aar\c49c50d521e9741ade7cdf78a12a4cd1\AndroidManifest.xml:20:5-44
MERGED from [com.android.support:support-vector-drawable:27.1.1] C:\Users\admin\.gradle\caches\transforms-1\files-1.1\support-vector-drawable-27.1.1.aar\c49c50d521e9741ade7cdf78a12a4cd1\AndroidManifest.xml:20:5-44
MERGED from [com.android.support:transition:27.1.1] C:\Users\admin\.gradle\caches\transforms-1\files-1.1\transition-27.1.1.aar\84202e42768ce6f64eed1d922756c39f\AndroidManifest.xml:20:5-44
MERGED from [com.android.support:transition:27.1.1] C:\Users\admin\.gradle\caches\transforms-1\files-1.1\transition-27.1.1.aar\84202e42768ce6f64eed1d922756c39f\AndroidManifest.xml:20:5-44
MERGED from [com.android.support:support-media-compat:27.1.1] C:\Users\admin\.gradle\caches\transforms-1\files-1.1\support-media-compat-27.1.1.aar\ca627b7abe3354b124799e616071c8c8\AndroidManifest.xml:20:5-44
MERGED from [com.android.support:support-media-compat:27.1.1] C:\Users\admin\.gradle\caches\transforms-1\files-1.1\support-media-compat-27.1.1.aar\ca627b7abe3354b124799e616071c8c8\AndroidManifest.xml:20:5-44
MERGED from [com.android.support:support-compat:27.1.1] C:\Users\admin\.gradle\caches\transforms-1\files-1.1\support-compat-27.1.1.aar\d920c432dd3047864e88bd440f5860ae\AndroidManifest.xml:20:5-44
MERGED from [com.android.support:support-compat:27.1.1] C:\Users\admin\.gradle\caches\transforms-1\files-1.1\support-compat-27.1.1.aar\d920c432dd3047864e88bd440f5860ae\AndroidManifest.xml:20:5-44
MERGED from [android.arch.lifecycle:livedata-core:1.1.0] C:\Users\admin\.gradle\caches\transforms-1\files-1.1\livedata-core-1.1.0.aar\183f54e9b4fc9ee32a97f01e4ee5845a\AndroidManifest.xml:20:5-44
MERGED from [android.arch.lifecycle:livedata-core:1.1.0] C:\Users\admin\.gradle\caches\transforms-1\files-1.1\livedata-core-1.1.0.aar\183f54e9b4fc9ee32a97f01e4ee5845a\AndroidManifest.xml:20:5-44
MERGED from [android.arch.lifecycle:viewmodel:1.1.0] C:\Users\admin\.gradle\caches\transforms-1\files-1.1\viewmodel-1.1.0.aar\e3f0b7d7143d8120a2b30d12dfd4f4fb\AndroidManifest.xml:20:5-44
MERGED from [android.arch.lifecycle:viewmodel:1.1.0] C:\Users\admin\.gradle\caches\transforms-1\files-1.1\viewmodel-1.1.0.aar\e3f0b7d7143d8120a2b30d12dfd4f4fb\AndroidManifest.xml:20:5-44
MERGED from [android.arch.lifecycle:runtime:1.1.0] C:\Users\admin\.gradle\caches\transforms-1\files-1.1\runtime-1.1.0.aar\47215543a14e42c7552151f5a4a7cfaf\AndroidManifest.xml:20:5-44
MERGED from [android.arch.lifecycle:runtime:1.1.0] C:\Users\admin\.gradle\caches\transforms-1\files-1.1\runtime-1.1.0.aar\47215543a14e42c7552151f5a4a7cfaf\AndroidManifest.xml:20:5-44
MERGED from [android.arch.core:runtime:1.1.0] C:\Users\admin\.gradle\caches\transforms-1\files-1.1\runtime-1.1.0.aar\09d7fb7084632ff06c5dddda3bdff890\AndroidManifest.xml:20:5-44
MERGED from [android.arch.core:runtime:1.1.0] C:\Users\admin\.gradle\caches\transforms-1\files-1.1\runtime-1.1.0.aar\09d7fb7084632ff06c5dddda3bdff890\AndroidManifest.xml:20:5-44
INJECTED from F:\Projects\Current Projects\app\src\main\AndroidManifest.xml
INJECTED from F:\Projects\Current Projects\app\src\main\AndroidManifest.xml
	android:targetSdkVersion
		INJECTED from F:\Projects\Current Projects\app\src\main\AndroidManifest.xml
		ADDED from F:\Projects\Current Projects\app\src\main\AndroidManifest.xml
		INJECTED from F:\Projects\Current Projects\app\src\main\AndroidManifest.xml
	android:minSdkVersion
		INJECTED from F:\Projects\Current Projects\app\src\main\AndroidManifest.xml
		ADDED from F:\Projects\Current Projects\app\src\main\AndroidManifest.xml
		INJECTED from F:\Projects\Current Projects\app\src\main\AndroidManifest.xml
